lute
1 211.218.233.210 11020
2 211.218.233.210 11021
3 211.218.233.211 11020
4 211.218.233.211 11021
5 211.218.233.211 11023
6 211.218.233.212 11020
7 211.218.233.212 11021
8 211.218.233.212 11023
9 211.218.233.213 11020
10 211.218.233.213 11021
12 211.218.233.213 11023
13 211.218.233.214 11020
14 211.218.233.214 11021
15 211.218.233.214 11023
16 211.218.233.215 11020
17 211.218.233.215 11021
18 211.218.233.215 11023
19 211.218.233.47 11020
20 211.218.233.47 11021
21 211.218.233.47 11023
22 211.218.233.48 11020
23 211.218.233.48 11021
24 211.218.233.48 11023
25 211.218.233.136 11020
26 211.218.233.136 11021
27 211.218.233.137 11020
28 211.218.233.137 11021
29 211.218.233.138 11020




